T	 K		 I0		 R		 Chi2		 ndf	 Chi2/ndf
-------------------------------------------------------------------------------------------
xx C	0.0283364	1.23267e-12	21.9713		85.8674		7	12.2668
xx C	0.0280764	1.79625e-13	25.0587		228.454		8	28.5567
xx C	0.0274079	1.21649e-14	28.9345		379.598		8	47.4498
xx C	0.0293287	5.18637e-15	31.5086		1386.88		9	154.098
xx C	0.0314645	2.36287e-15	33.2941		2947.1		9	327.456
xx C	0.0326742	5.20904e-16	34.4205		4647.01		10	464.701
xx C	0.0356603	8.54662e-16	33.6846		5299.98		10	529.998
xx C	0.0421484	1.01579e-14	31.9699		4358.79		10	435.879
