#
-0.1	0.0011		-2.83E-12			1.41E-12
-0.2	0.0012		4.77E-12			2.04E-12
-0.3	0.0013		-1.17E-12			513.83E-15
-0.4	0.0014		-8.93E-12			1.99E-12
-0.5	0.0015		-172.70E-12			1.88E-12
-0.6	0.0016		-5.21E-09			1.77E-12
-0.7	0.0017		-749.08E-09			129.27E-12
-0.8	0.0018		-38.39E-06			8.91E-09
-0.9	0.0019		-184.97E-06			54.44E-09
-1	0.002		-624.41E-06			173.48E-09
-1.1	0.0021		-1.64E-03			123.18E-09
-1.2	0.0022		-3.40E-03			1.16E-06
-1.3	0.0023		-5.80E-03			2.20E-06
-1.4	0.0024		-8.69E-03			2.83E-06
-1.5	0.0025		-11.91E-03			3.39E-06
-1.6	0.0026		-15.36E-03			4.49E-06
-1.7	0.0027		-19.00E-03			5.51E-06

